[
  {
    "url": "http://www.nhb.gov.sg/places/historic-sites/changi-beach-massacre",
    "name": "Changi Beach Massacre",
    "iconName": "onemapicon.gif",
    "latitude": 1.4275917548304724,
    "longitude": 103.95472896227524
  },
  {
    "url": "http://www.nhb.gov.sg/places/historic-sites/trinity-theological-college",
    "name": "Trinity Theological College",
    "iconName": "onemapicon.gif",
    "latitude": 1.28293891187369,
    "longitude": 103.86481127964616
  },
  {
    "url": "http://www.nhb.gov.sg/places/historic-sites/chui-eng-free-school",
    "name": "Chui Eng Free School",
    "iconName": "onemapicon.gif",
    "latitude": 1.2846267441777295,
    "longitude": 103.84683808437468
  },
  {
    "url": "http://www.nhb.gov.sg/places/historic-sites/sentosa-beach",
    "name": "Sentosa Beach",
    "iconName": "onemapicon.gif",
    "latitude": 1.2735343157508954,
    "longitude": 103.81659320098701
  },
  {
    "url": "http://www.nhb.gov.sg/places/historic-sites/gan-eng-seng-school",
    "name": "Gan Eng Seng School",
    "iconName": "onemapicon.gif",
    "latitude": 1.2598299534503101,
    "longitude": 103.85365856223964
  },
  {
    "url": "http://www.nhb.gov.sg/places/historic-sites/raffles-institution",
    "name": "Raffles Institution",
    "iconName": "onemapicon.gif",
    "latitude": 1.2886978106849822,
    "longitude": 103.85750400382727
  },
  {
    "url": "http://www.nhb.gov.sg/places/historic-sites/farrer-park",
    "name": "Farrer Park",
    "iconName": "onemapicon.gif",
    "latitude": 1.288783985689099,
    "longitude": 103.87589679289327
  },
  {
    "url": "http://www.nhb.gov.sg/places/historic-sites/singapore-chin-kang-huay-kuan",
    "name": "Singapore Chin Kang Huay Kuan",
    "iconName": "onemapicon.gif",
    "latitude": 1.2767833185264599,
    "longitude": 103.84302573741604
  },
  {
    "url": "http://www.nhb.gov.sg/places/historic-sites/kandang-kerbau-hospital",
    "name": "Kandang Kerbau Hospital",
    "iconName": "onemapicon.gif",
    "latitude": 1.2853527454692566,
    "longitude": 103.87068735537636
  },
  {
    "url": "http://www.nhb.gov.sg/places/historic-sites/alexandra-hospital",
    "name": "Alexandra Hospital",
    "iconName": "onemapicon.gif",
    "latitude": 1.2382895270701244,
    "longitude": 103.84971796431799
  },
  {
    "url": "http://www.nhb.gov.sg/places/historic-sites/sri-senpaga-vinayagar-temple",
    "name": "Sri Senpaga Vinayagar Temple",
    "iconName": "onemapicon.gif",
    "latitude": 1.3392608567963706,
    "longitude": 103.86927830449712
  },
  {
    "url": "http://www.nhb.gov.sg/places/historic-sites/queenstown",
    "name": "Queenstown",
    "iconName": "onemapicon.gif",
    "latitude": 1.2339593782749174,
    "longitude": 103.86374124178367
  },
  {
    "url": "http://www.nhb.gov.sg/places/historic-sites/sri-krishnan-temple",
    "name": "Sri Krishnan Temple",
    "iconName": "onemapicon.gif",
    "latitude": 1.2892140119972435,
    "longitude": 103.8641002600981
  },
  {
    "url": "http://www.nhb.gov.sg/places/historic-sites/pulau-sejahat",
    "name": "Pulau Sejahat",
    "iconName": "onemapicon.gif",
    "latitude": 1.4277447436592428,
    "longitude": 103.95464849614126
  },
  {
    "url": "http://www.nhb.gov.sg/places/historic-sites/kwan-im-thong-hood-cho-temple",
    "name": "Kwan Im Thong Hood Cho Temple",
    "iconName": "onemapicon.gif",
    "latitude": 1.2893156613464412,
    "longitude": 103.86435063890305
  },
  {
    "url": "http://www.nhb.gov.sg/places/historic-sites/outram-road-prison",
    "name": "Outram Road Prison",
    "iconName": "onemapicon.gif",
    "latitude": 1.275145260244964,
    "longitude": 103.84539255675432
  },
  {
    "url": "http://www.nhb.gov.sg/places/historic-sites/batu-berlayar",
    "name": "Batu Berlayar",
    "iconName": "onemapicon.gif",
    "latitude": 1.241244070964013,
    "longitude": 103.82627661409421
  },
  {
    "url": "http://www.nhb.gov.sg/places/historic-sites/tan-tock-seng-hospital",
    "name": "Tan Tock Seng Hospital",
    "iconName": "onemapicon.gif",
    "latitude": 1.281134485505804,
    "longitude": 103.88442748933944
  },
  {
    "url": "http://www.nhb.gov.sg/places/historic-sites/geylang-serai",
    "name": "Geylang Serai",
    "iconName": "onemapicon.gif",
    "latitude": 1.334938660212581,
    "longitude": 103.880106152642
  },
  {
    "url": "http://www.nhb.gov.sg/places/historic-sites/changi-murals",
    "name": "Changi Murals",
    "iconName": "onemapicon.gif",
    "latitude": 1.4110942516049014,
    "longitude": 103.92563907627513
  },
  {
    "url": "http://www.nhb.gov.sg/places/historic-sites/republic-of-singapore-yacht-club",
    "name": "Republic of Singapore Yacht Club",
    "iconName": "onemapicon.gif",
    "latitude": 1.1984235902118898,
    "longitude": 103.85644101934622
  },
  {
    "url": "http://www.nhb.gov.sg/places/historic-sites/pondok-peranakan-gelam-club",
    "name": "Pondok Peranakan Gelam Club",
    "iconName": "onemapicon.gif",
    "latitude": 1.2823147635805494,
    "longitude": 103.84535149015065
  },
  {
    "url": "http://www.nhb.gov.sg/places/historic-sites/middle-road-church",
    "name": "Middle Road Church",
    "iconName": "onemapicon.gif",
    "latitude": 1.2884984208300092,
    "longitude": 103.86333818464881
  },
  {
    "url": "http://www.nhb.gov.sg/places/historic-sites/the-founding-of-boys-brigade-in-singapore",
    "name": "The Founding of Boys' Brigade in Singapore",
    "iconName": "onemapicon.gif",
    "latitude": 1.2875058513266748,
    "longitude": 103.86528057496427
  },
  {
    "url": "http://www.nhb.gov.sg/places/historic-sites/syonan-jinja",
    "name": "Syonan Jinja",
    "iconName": "onemapicon.gif",
    "latitude": 1.2542858090537023,
    "longitude": 103.89895039403807
  },
  {
    "url": "http://www.nhb.gov.sg/places/historic-sites/ee-hoe-hean-club",
    "name": "Ee Hoe Hean Club",
    "iconName": "onemapicon.gif",
    "latitude": 1.2766010687742428,
    "longitude": 103.84334268121421
  },
  {
    "url": "http://www.nhb.gov.sg/places/historic-sites/kranji-beach-battle",
    "name": "Kranji Beach Battle",
    "iconName": "onemapicon.gif",
    "latitude": 1.1735501948491067,
    "longitude": 104.00190457884106
  },
  {
    "url": "http://www.nhb.gov.sg/places/historic-sites/pasir-panjang-battle",
    "name": "Pasir Panjang Battle",
    "iconName": "onemapicon.gif",
    "latitude": 1.2267130760955147,
    "longitude": 103.84731500092397
  },
  {
    "url": "http://www.nhb.gov.sg/places/historic-sites/labrador-battery",
    "name": "Labrador Battery",
    "iconName": "onemapicon.gif",
    "latitude": 1.2377697241795609,
    "longitude": 103.83082111903582
  },
  {
    "url": "http://www.nhb.gov.sg/places/historic-sites/bukit-batok-memorials",
    "name": "Bukit Batok Memorials",
    "iconName": "onemapicon.gif",
    "latitude": 1.2025324961577335,
    "longitude": 103.91421561886389
  },
  {
    "url": "http://www.nhb.gov.sg/places/historic-sites/sook-ching-inspection-centre",
    "name": "Sook Ching Inspection Centre",
    "iconName": "onemapicon.gif",
    "latitude": 1.2823329606515286,
    "longitude": 103.84756335757373
  },
  {
    "url": "http://www.nhb.gov.sg/places/historic-sites/kempeitai-east-district-branch",
    "name": "Kempeitai East District Branch",
    "iconName": "onemapicon.gif",
    "latitude": 1.2848107289908233,
    "longitude": 103.86109267502879
  },
  {
    "url": "http://www.nhb.gov.sg/places/historic-sites/yeung-ching-school",
    "name": "Yeung Ching School",
    "iconName": "onemapicon.gif",
    "latitude": 1.2825199244107333,
    "longitude": 103.84530387843215
  },
  {
    "url": "http://www.nhb.gov.sg/places/historic-sites/custom-house-maxwell-road",
    "name": "Custom House, Maxwell Road",
    "iconName": "onemapicon.gif",
    "latitude": 1.282964089408139,
    "longitude": 103.84089957019972
  },
  {
    "url": "http://www.nhb.gov.sg/places/historic-sites/deng-xiaoping",
    "name": "Deng Xiaoping",
    "iconName": "onemapicon.gif",
    "latitude": 1.287930982297176,
    "longitude": 103.85043580403523
  },
  {
    "url": "http://www.nhb.gov.sg/places/historic-sites/anglo-chinese-school",
    "name": "Anglo-Chinese School",
    "iconName": "onemapicon.gif",
    "latitude": 1.2829107194148655,
    "longitude": 103.84388918631052
  },
  {
    "url": "http://www.nhb.gov.sg/places/historic-sites/raffles-place",
    "name": "Raffles Place",
    "iconName": "onemapicon.gif",
    "latitude": 1.2876955011032833,
    "longitude": 103.84781876418529
  },
  {
    "url": "http://www.nhb.gov.sg/places/historic-sites/institute-of-mental-health",
    "name": "Institute of Mental Health",
    "iconName": "onemapicon.gif",
    "latitude": 1.3210569309356457,
    "longitude": 103.94470767736134
  },
  {
    "url": "http://www.nhb.gov.sg/places/historic-sites/the-gate-of-hope",
    "name": "Gate of Hope",
    "iconName": "onemapicon.gif",
    "latitude": 1.2881915176435497,
    "longitude": 103.85948415917788
  },
  {
    "url": "http://www.nhb.gov.sg/places/historic-sites/keppel-harbour",
    "name": "Keppel Harbour",
    "iconName": "onemapicon.gif",
    "latitude": 1.257210059974635,
    "longitude": 103.82702161022274
  },
  {
    "url": "http://www.nhb.gov.sg/places/historic-sites/lower-barracks",
    "name": "Lower Barracks",
    "iconName": "onemapicon.gif",
    "latitude": 1.2774243557696723,
    "longitude": 103.84577292440653
  },
  {
    "url": "http://www.nhb.gov.sg/places/historic-sites/phoenix-park",
    "name": "Phoenix Park",
    "iconName": "onemapicon.gif",
    "latitude": 1.2528560568244351,
    "longitude": 103.86138742556616
  },
  {
    "url": "http://www.nhb.gov.sg/places/historic-sites/pearls-hill-school",
    "name": "Pearl's Hill School",
    "iconName": "onemapicon.gif",
    "latitude": 1.2779718416339076,
    "longitude": 103.85038104124529
  },
  {
    "url": "http://www.nhb.gov.sg/places/historic-sites/beach-road-police-station",
    "name": "Beach Road Police Station",
    "iconName": "onemapicon.gif",
    "latitude": 1.2937367470104582,
    "longitude": 103.86075173881106
  },
  {
    "url": "http://www.nhb.gov.sg/places/historic-sites/peoples-defence-force-headquarters",
    "name": "People's Defence Force Camp",
    "iconName": "onemapicon.gif",
    "latitude": 1.292611153311765,
    "longitude": 103.8596985569733
  },
  {
    "url": "http://www.nhb.gov.sg/places/historic-sites/sime-road-camp",
    "name": "Sime Road Machine-Gun Pillbox",
    "iconName": "onemapicon.gif",
    "latitude": 1.247529350478434,
    "longitude": 103.90370843191143
  },
  {
    "url": "http://www.nhb.gov.sg/places/historic-sites/pasir-panjang-machine-gun-pillbox",
    "name": "Pasir Panjang Machine-Gun Pillbox",
    "iconName": "onemapicon.gif",
    "latitude": 1.2139193169036946,
    "longitude": 103.85250836734235
  },
  {
    "url": "http://www.nhb.gov.sg/places/historic-sites/national-theatre",
    "name": "National Theatre",
    "iconName": "onemapicon.gif",
    "latitude": 1.2808472761549985,
    "longitude": 103.85714918356767
  },
  {
    "url": "http://www.nhb.gov.sg/places/historic-sites/singapore-polytechnic",
    "name": "Singapore Polytechnic",
    "iconName": "onemapicon.gif",
    "latitude": 1.284535237699392,
    "longitude": 103.83805204450346
  },
  {
    "url": "http://www.nhb.gov.sg/places/historic-sites/united-chinese-library",
    "name": "United Chinese Library",
    "iconName": "onemapicon.gif",
    "latitude": 1.285737742682661,
    "longitude": 103.85821832417481
  },
  {
    "url": "http://www.nhb.gov.sg/places/historic-sites/balestier-plain",
    "name": "Balestier Plain",
    "iconName": "onemapicon.gif",
    "latitude": 1.2912758510250595,
    "longitude": 103.8817788631836
  },
  {
    "url": "http://www.nhb.gov.sg/places/historic-sites/jurong-kranji-defence-line",
    "name": "Jurong-Kranji Defence Line",
    "iconName": "onemapicon.gif",
    "latitude": 1.1524512037711596,
    "longitude": 103.9163624668723
  },
  {
    "url": "http://www.nhb.gov.sg/places/historic-sites/punggol-beach-massacre",
    "name": "Punggol Beach Massacre",
    "iconName": "onemapicon.gif",
    "latitude": 1.3473004755254765,
    "longitude": 103.98428098149489
  },
  {
    "url": "http://www.nhb.gov.sg/places/historic-sites/united-engineers-limited",
    "name": "United Engineers Limited",
    "iconName": "onemapicon.gif",
    "latitude": 1.2793486338955744,
    "longitude": 103.856687159629
  },
  {
    "url": "http://www.nhb.gov.sg/places/historic-sites/block-a-of-phoenix-park",
    "name": "Block A of Phoenix Park",
    "iconName": "onemapicon.gif",
    "latitude": 1.2516432480373108,
    "longitude": 103.86206203837153
  },
  {
    "url": "http://www.nhb.gov.sg/places/historic-sites/execution-of-captured-rimau-commandos",
    "name": "Execution of Captured Rimau Commandos",
    "iconName": "onemapicon.gif",
    "latitude": 1.2086798324755985,
    "longitude": 103.8724585451304
  },
  {
    "url": "http://www.nhb.gov.sg/places/historic-sites/force-136",
    "name": "Force 136",
    "iconName": "onemapicon.gif",
    "latitude": 1.2674974900488651,
    "longitude": 103.90491305479482
  },
  {
    "url": "http://www.nhb.gov.sg/places/historic-sites/fort-canning-command-centre",
    "name": "Fort Canning Command Centre",
    "iconName": "onemapicon.gif",
    "latitude": 1.282658903983453,
    "longitude": 103.85948804298735
  },
  {
    "url": "http://www.nhb.gov.sg/places/historic-sites/ho-chi-minh",
    "name": "Ho Chi Minh",
    "iconName": "onemapicon.gif",
    "latitude": 1.2882278941456398,
    "longitude": 103.85046164086067
  },
  {
    "url": "http://www.nhb.gov.sg/places/historic-sites/jawaharlal-nehru",
    "name": "Jawaharlal Nehru",
    "iconName": "onemapicon.gif",
    "latitude": 1.28776088594346,
    "longitude": 103.85053913328102
  },
  {
    "url": "http://www.nhb.gov.sg/places/historic-sites/jose-rizal",
    "name": "Jose Rizal",
    "iconName": "onemapicon.gif",
    "latitude": 1.2886143783333908,
    "longitude": 103.85082131501352
  },
  {
    "url": "http://www.nhb.gov.sg/places/historic-sites/fuk-tak-chi",
    "name": "Fuk Tak Chi",
    "iconName": "onemapicon.gif",
    "latitude": 1.2851752802437766,
    "longitude": 103.84669074470251
  },
  {
    "url": "http://www.nhb.gov.sg/places/historic-sites/adam-park-battle",
    "name": "Adam Park",
    "iconName": "onemapicon.gif",
    "latitude": 1.2502025569240316,
    "longitude": 103.89240690196792
  },
  {
    "url": "http://www.nhb.gov.sg/places/historic-sites/oversea-chinese-banking-coporation",
    "name": "Oversea-Chinese Banking Corporation",
    "iconName": "onemapicon.gif",
    "latitude": 1.2854086814673025,
    "longitude": 103.84905464433419
  },
  {
    "url": "http://www.nhb.gov.sg/places/historic-sites/upper-seletar-reservoir",
    "name": "Upper Seletar Reservoir",
    "iconName": "onemapicon.gif",
    "latitude": 1.2426594725308258,
    "longitude": 103.96388817950958
  },
  {
    "url": "http://www.nhb.gov.sg/places/historic-sites/lower-peirce-reservoir",
    "name": "Lower Peirce Reservoir",
    "iconName": "onemapicon.gif",
    "latitude": 1.262262026053284,
    "longitude": 103.93358974143719
  },
  {
    "url": "http://www.nhb.gov.sg/places/historic-sites/macritchie-reservoir",
    "name": "MacRitchie Reservoir",
    "iconName": "onemapicon.gif",
    "latitude": 1.2686337723728003,
    "longitude": 103.90533037747409
  },
  {
    "url": "http://www.nhb.gov.sg/places/historic-sites/united-overseas-bank",
    "name": "United Overseas Bank",
    "iconName": "onemapicon.gif",
    "latitude": 1.2866537747416504,
    "longitude": 103.84907107008068
  },
  {
    "url": "http://www.nhb.gov.sg/places/historic-sites/sime-road-camp",
    "name": "Sime Road Camp",
    "iconName": "onemapicon.gif",
    "latitude": 1.2542858068962437,
    "longitude": 103.8990358441025
  },
  {
    "url": "http://www.nhb.gov.sg/places/historic-sites/kallang-airport",
    "name": "Kallang Airport",
    "iconName": "onemapicon.gif",
    "latitude": 1.309201389375888,
    "longitude": 103.87230164842497
  },
  {
    "url": "http://www.nhb.gov.sg/places/historic-sites/havelock-road-camp--river-valley-road-camp",
    "name": "Havelock Road Camp / River Valley Road Camp",
    "iconName": "onemapicon.gif",
    "latitude": 1.2628000917671636,
    "longitude": 103.85694214372892
  },
  {
    "url": "http://www.nhb.gov.sg/places/historic-sites/clifford-pier",
    "name": "Clifford Pier",
    "iconName": "onemapicon.gif",
    "latitude": 1.28950113324689,
    "longitude": 103.84768068296593
  },
  {
    "url": "http://www.nhb.gov.sg/places/historic-sites/singapore-badminton-hall",
    "name": "Singapore Badminton Hall",
    "iconName": "onemapicon.gif",
    "latitude": 1.318245508535028,
    "longitude": 103.87369095962525
  },
  {
    "url": "http://www.nhb.gov.sg/places/historic-sites/katong-park",
    "name": "Katong Park",
    "iconName": "onemapicon.gif",
    "latitude": 1.3226383201237621,
    "longitude": 103.8604967170296
  },
  {
    "url": "http://www.nhb.gov.sg/places/historic-sites/jalan-besar-stadium",
    "name": "Jalan Besar Stadium",
    "iconName": "onemapicon.gif",
    "latitude": 1.2959239555159974,
    "longitude": 103.8737320027673
  },
  {
    "url": "http://www.nhb.gov.sg/places/historic-sites/omar-kampong-malacca-mosque",
    "name": "Omar Kampong Malacca Mosque",
    "iconName": "onemapicon.gif",
    "latitude": 1.28025956013781,
    "longitude": 103.85169057221128
  },
  {
    "url": "http://www.nhb.gov.sg/places/historic-sites/bukit-timah-battle",
    "name": "Bukit Timah Battle",
    "iconName": "onemapicon.gif",
    "latitude": 1.2128345952278734,
    "longitude": 103.91199996236696
  },
  {
    "url": "http://www.nhb.gov.sg/places/historic-sites/raffles-girls-school",
    "name": "Raffles Girls' School",
    "iconName": "onemapicon.gif",
    "latitude": 1.286214806363258,
    "longitude": 103.85863618677213
  },
  {
    "url": "http://www.nhb.gov.sg/places/historic-sites/singapore-chinese-girls-school",
    "name": "Singapore Chinese Girls' School",
    "iconName": "onemapicon.gif",
    "latitude": 1.2752813244036658,
    "longitude": 103.86614575432469
  },
  {
    "url": "http://www.nhb.gov.sg/places/historic-sites/sakya-muni-buddha-gaya-temple",
    "name": "Sakya Muni Buddha Gaya Temple",
    "iconName": "onemapicon.gif",
    "latitude": 1.2931861394721165,
    "longitude": 103.87825256019339
  },
  {
    "url": "http://www.nhb.gov.sg/places/historic-sites/victoria-memorial-hall",
    "name": "Victoria Memorial Hall",
    "iconName": "onemapicon.gif",
    "latitude": 1.2881121261345123,
    "longitude": 103.85203345209351
  },
  {
    "url": "http://www.nhb.gov.sg/places/historic-sites/indian-national-army-memorial",
    "name": "Indian National Army Memorial",
    "iconName": "onemapicon.gif",
    "latitude": 1.290023357121888,
    "longitude": 103.85302496699012
  },
  {
    "url": "http://www.nhb.gov.sg/places/historic-sites/queen-elizabeth-walk",
    "name": "Queen Elizabeth Walk",
    "iconName": "onemapicon.gif",
    "latitude": 1.2899509572925334,
    "longitude": 103.85267333213184
  },
  {
    "url": "http://www.nhb.gov.sg/places/historic-sites/japanese-propaganda-department",
    "name": "Japanese Propaganda Department",
    "iconName": "onemapicon.gif",
    "latitude": 1.283830392560967,
    "longitude": 103.86274097265216
  },
  {
    "url": "http://www.nhb.gov.sg/places/historic-sites/sarimbun-beach-landing",
    "name": "Sarimbun Beach Landing",
    "iconName": "onemapicon.gif",
    "latitude": 1.134565599765621,
    "longitude": 103.99952777111099
  },
  {
    "url": "http://www.nhb.gov.sg/places/historic-sites/seletar-airfield",
    "name": "Seletar Airfield",
    "iconName": "onemapicon.gif",
    "latitude": 1.3077977234912712,
    "longitude": 103.96544015568271
  },
  {
    "url": "http://www.nhb.gov.sg/places/historic-sites/upper-barracks",
    "name": "Upper Barracks",
    "iconName": "onemapicon.gif",
    "latitude": 1.2780211783481439,
    "longitude": 103.84836809613782
  },
  {
    "url": "http://www.nhb.gov.sg/places/historic-sites/withdrawal-to-singapore",
    "name": "Withdrawal to Singapore",
    "iconName": "onemapicon.gif",
    "latitude": 1.2071792416298015,
    "longitude": 104.01151685014297
  },
  {
    "url": "http://www.nhb.gov.sg/places/historic-sites/singapore-armed-forces-warrant-officers-and-specialists-club",
    "name": "Singapore Armed Forces Warrant Officers' and Specialists' Club",
    "iconName": "onemapicon.gif",
    "latitude": 1.2915446926185281,
    "longitude": 103.85812101722028
  },
  {
    "url": "http://www.nhb.gov.sg/places/historic-sites/johore-battery",
    "name": "Johore Battery",
    "iconName": "onemapicon.gif",
    "latitude": 1.4166123471817391,
    "longitude": 103.92842869748971
  },
  {
    "url": "http://www.nhb.gov.sg/places/historic-sites/merdeka-bridge",
    "name": "Merdeka Bridge",
    "iconName": "onemapicon.gif",
    "latitude": 1.3038176132514345,
    "longitude": 103.86726928723438
  },
  {
    "url": "http://www.nhb.gov.sg/places/historic-sites/silat-road-sikh-temple",
    "name": "Silat Road Sikh Temple",
    "iconName": "onemapicon.gif",
    "latitude": 1.2687343894218284,
    "longitude": 103.84095513440936
  },
  {
    "url": "http://www.nhb.gov.sg/places/historic-sites/the-first-public-dental-clinic-and-school",
    "name": "The First Public Dental School and Public Clinic",
    "iconName": "onemapicon.gif",
    "latitude": 1.2741824861936342,
    "longitude": 103.84323078078071
  },
  {
    "url": "http://www.nhb.gov.sg/places/historic-sites/chen-wen-hsi",
    "name": "Chen Wen Hsi",
    "iconName": "onemapicon.gif",
    "latitude": 1.2405195845669899,
    "longitude": 103.88276743616696
  },
  {
    "url": "http://www.nhb.gov.sg/places/historic-sites/joseph-conrad",
    "name": "Joseph Conrad",
    "iconName": "onemapicon.gif",
    "latitude": 1.289063214624868,
    "longitude": 103.85001448834856
  },
  {
    "url": "http://www.nhb.gov.sg/places/historic-sites/central-sikh-temple",
    "name": "Central Sikh Temple",
    "iconName": "onemapicon.gif",
    "latitude": 1.290187367965324,
    "longitude": 103.86380575147136
  },
  {
    "url": "http://www.nhb.gov.sg/places/historic-sites/methodist-girls-school",
    "name": "Methodist Girls' School",
    "iconName": "onemapicon.gif",
    "latitude": 1.2864550821897602,
    "longitude": 103.8656680438331
  },
  {
    "url": "http://www.nhb.gov.sg/places/historic-sites/st-margarets-school",
    "name": "St. Margaret's School",
    "iconName": "onemapicon.gif",
    "latitude": 1.2825309420219266,
    "longitude": 103.86767992694766
  },
  {
    "url": "http://www.nhb.gov.sg/places/historic-sites/kallang-gasworks",
    "name": "Kallang Gasworks",
    "iconName": "onemapicon.gif",
    "latitude": 1.3033810226623752,
    "longitude": 103.86986922435335
  }
]